EFI NEON Challenge - Aquatics
…
# A tibble: 1 × 1
  date               
  <dttm>             
1 2022-11-13 00:00:00

Oxygen
Temperature
Chlorophyll-A

# A tibble: 108,605 × 17
   datetime            family variable  obser…¹  crps    logs  mean median    sd
   <dttm>              <chr>  <chr>       <dbl> <dbl>   <dbl> <dbl>  <dbl> <dbl>
 1 2022-10-30 00:00:00 sample temperat…    23.5 0.174  10.1    23.7   23.6 0.159
 2 2022-10-31 00:00:00 sample temperat…    24.0 0.222   5.78   23.9   23.6 0.660
 3 2022-11-01 00:00:00 sample temperat…    24.5 0.664   0.776  23.7   23.6 0.275
 4 2022-11-02 00:00:00 sample temperat…    24.7 0.458   1.31   24.3   23.7 1.08 
 5 2022-11-03 00:00:00 sample temperat…    24.7 0.903  25.1    23.7   23.6 0.212
 6 2022-11-04 00:00:00 sample temperat…    24.4 0.697 160.     23.6   23.6 0.134
 7 2022-11-05 00:00:00 sample temperat…    24.5 0.707   7.41   23.7   23.6 0.342
 8 2022-11-06 00:00:00 sample temperat…    24.8 0.937   3.20   23.8   23.6 0.574
 9 2022-11-07 00:00:00 sample temperat…    24.7 0.744   2.19   24.0   23.7 0.848
10 2022-11-08 00:00:00 sample temperat…    24.4 0.435   2.13   24.1   23.7 0.832
# … with 108,595 more rows, 8 more variables: quantile97.5 <dbl>,
#   quantile02.5 <dbl>, quantile90 <dbl>, quantile10 <dbl>, model_id <chr>,
#   reference_datetime <chr>, site_id <chr>, horizon <dbl>, and abbreviated
#   variable name ¹​observation
…
